{
  "ID": "efdd0908-e9ba-4b44-bb43-9c6247fe0020",
  "Version": "3.10.0.0",
  "Name": "BounceButton",
  "Content": {
    "Content": {
      "Animation": {
        "Duration": 100,
        "Speed": 1.0,
        "ActivedAnimationName": "bouncing",
        "Timelines": [
          {
            "ActionTag": -363225773,
            "Property": "Position",
            "Frames": [
              {
                "X": 0.0,
                "Y": 0.0,
                "FrameIndex": 0,
                "EasingData": {
                  "Type": 0
                },
                "ctype": "PointFrameData"
              }
            ],
            "ctype": "TimelineData"
          },
          {
            "ActionTag": -363225773,
            "Property": "Scale",
            "Frames": [
              {
                "X": 1.0,
                "Y": 1.0,
                "FrameIndex": 0,
                "EasingData": {
                  "Type": 0
                },
                "ctype": "ScaleValueFrameData"
              },
              {
                "X": 1.08,
                "Y": 1.08,
                "FrameIndex": 50,
                "EasingData": {
                  "Type": 0
                },
                "ctype": "ScaleValueFrameData"
              },
              {
                "X": 1.0,
                "Y": 1.0,
                "FrameIndex": 100,
                "EasingData": {
                  "Type": 0
                },
                "ctype": "ScaleValueFrameData"
              }
            ],
            "ctype": "TimelineData"
          },
          {
            "ActionTag": -363225773,
            "Property": "RotationSkew",
            "Frames": [
              {
                "X": 0.0,
                "Y": 0.0,
                "FrameIndex": 0,
                "EasingData": {
                  "Type": 0
                },
                "ctype": "ScaleValueFrameData"
              }
            ],
            "ctype": "TimelineData"
          }
        ],
        "ctype": "TimelineActionData"
      },
      "AnimationList": [
        {
          "StartIndex": 0,
          "EndIndex": 100,
          "Name": "bouncing",
          "ctype": "AnimationInfoData"
        }
      ],
      "ObjectData": {
        "Tag": 85,
        "Children": [
          {
            "AnchorPoint": {},
            "Position": {
              "X": 0.0,
              "Y": 0.0
            },
            "Scale": {
              "ScaleX": 1.08,
              "ScaleY": 1.08
            },
            "CColor": {},
            "IconVisible": true,
            "PrePosition": {
              "X": 0.0,
              "Y": 0.0
            },
            "PreSize": {
              "X": 0.0,
              "Y": 0.0
            },
            "Tag": 89,
            "Children": [
              {
                "FileData": {
                  "Type": "Normal",
                  "Path": "textures/Button_normal.png",
                  "Plist": ""
                },
                "BlendFunc": {
                  "Src": 1,
                  "Dst": 771
                },
                "AnchorPoint": {
                  "ScaleX": 0.5,
                  "ScaleY": 0.5
                },
                "Position": {
                  "X": 0.0,
                  "Y": 0.0
                },
                "Scale": {
                  "ScaleX": 1.0,
                  "ScaleY": 1.0
                },
                "CColor": {},
                "IconVisible": false,
                "PrePosition": {
                  "X": 0.0,
                  "Y": 0.0
                },
                "PreSize": {
                  "X": 0.0,
                  "Y": 0.0
                },
                "LeftMargin": -182.0,
                "RightMargin": -182.0,
                "TopMargin": -62.0,
                "BottomMargin": -62.0,
                "Tag": 90,
                "ActionTag": 815284460,
                "Size": {
                  "X": 364.0,
                  "Y": 124.0
                },
                "Name": "Button_normal_1",
                "ctype": "SpriteObjectData"
              }
            ],
            "ActionTag": -363225773,
            "Size": {
              "X": 0.0,
              "Y": 0.0
            },
            "Name": "content",
            "ctype": "SingleNodeObjectData"
          }
        ],
        "Size": {
          "X": 0.0,
          "Y": 0.0
        },
        "Name": "Node",
        "ctype": "SingleNodeObjectData"
      },
      "UsedResources": [
        "textures/Button_normal.png"
      ],
      "ctype": "GameFileData"
    }
  },
  "Type": "Node"
}