{
  "ID": "bb654b55-e648-4efd-a70f-342236fdc4cd",
  "Version": "3.10.0.0",
  "Name": "Table",
  "Content": {
    "Content": {
      "Animation": {
        "Duration": 30,
        "Speed": 1.0,
        "Timelines": [
          {
            "ActionTag": -2124573912,
            "Property": "Position",
            "Frames": [
              {
                "X": 0.0,
                "Y": 40.0,
                "FrameIndex": 0,
                "EasingData": {
                  "Type": 0
                },
                "ctype": "PointFrameData"
              },
              {
                "X": 0.0,
                "Y": 0.0,
                "FrameIndex": 7,
                "EasingData": {
                  "Type": 0
                },
                "ctype": "PointFrameData"
              },
              {
                "X": 0.0,
                "Y": 0.0,
                "FrameIndex": 30,
                "EasingData": {
                  "Type": 0
                },
                "ctype": "PointFrameData"
              }
            ],
            "ctype": "TimelineData"
          },
          {
            "ActionTag": -2124573912,
            "Property": "Scale",
            "Frames": [
              {
                "X": 0.6,
                "Y": 1.3,
                "FrameIndex": 0,
                "EasingData": {
                  "Type": 0
                },
                "ctype": "ScaleValueFrameData"
              },
              {
                "X": 0.6,
                "Y": 1.3,
                "FrameIndex": 7,
                "EasingData": {
                  "Type": 0
                },
                "ctype": "ScaleValueFrameData"
              },
              {
                "X": 1.15,
                "Y": 0.8,
                "FrameIndex": 14,
                "EasingData": {
                  "Type": 0
                },
                "ctype": "ScaleValueFrameData"
              },
              {
                "X": 1.0,
                "Y": 1.1,
                "FrameIndex": 25,
                "EasingData": {
                  "Type": 0
                },
                "ctype": "ScaleValueFrameData"
              },
              {
                "X": 1.0,
                "Y": 1.0,
                "FrameIndex": 30,
                "EasingData": {
                  "Type": 0
                },
                "ctype": "ScaleValueFrameData"
              }
            ],
            "ctype": "TimelineData"
          },
          {
            "ActionTag": -2124573912,
            "Property": "RotationSkew",
            "Frames": [
              {
                "X": 0.0,
                "Y": 0.0,
                "FrameIndex": 30,
                "EasingData": {
                  "Type": 0
                },
                "ctype": "ScaleValueFrameData"
              }
            ],
            "ctype": "TimelineData"
          },
          {
            "ActionTag": -2124573912,
            "Property": "Alpha",
            "Frames": [
              {
                "Value": 0,
                "FrameIndex": 0,
                "EasingData": {
                  "Type": 0
                },
                "ctype": "IntFrameData"
              },
              {
                "Value": 255,
                "FrameIndex": 7,
                "EasingData": {
                  "Type": 0
                },
                "ctype": "IntFrameData"
              },
              {
                "Value": 255,
                "FrameIndex": 30,
                "EasingData": {
                  "Type": 0
                },
                "ctype": "IntFrameData"
              }
            ],
            "ctype": "TimelineData"
          },
          {
            "ActionTag": -2124573912,
            "Property": "AnchorPoint",
            "Frames": [
              {
                "X": 0.48,
                "Y": 0.06,
                "FrameIndex": 7,
                "EasingData": {
                  "Type": 0
                },
                "ctype": "ScaleValueFrameData"
              },
              {
                "X": 0.48,
                "Y": 0.06,
                "FrameIndex": 30,
                "EasingData": {
                  "Type": 0
                },
                "ctype": "ScaleValueFrameData"
              }
            ],
            "ctype": "TimelineData"
          }
        ],
        "ctype": "TimelineActionData"
      },
      "AnimationList": [
        {
          "StartIndex": 0,
          "EndIndex": 45,
          "Name": "intro",
          "ctype": "AnimationInfoData"
        }
      ],
      "ObjectData": {
        "Tag": 151,
        "Children": [
          {
            "FileData": {
              "Type": "Normal",
              "Path": "textures/Decor_4.png",
              "Plist": ""
            },
            "BlendFunc": {
              "Src": 1,
              "Dst": 771
            },
            "AnchorPoint": {
              "ScaleX": 0.48,
              "ScaleY": 0.06
            },
            "Position": {
              "X": 0.0,
              "Y": 40.0
            },
            "Scale": {
              "ScaleX": 0.6,
              "ScaleY": 1.3
            },
            "CColor": {},
            "IconVisible": false,
            "PrePosition": {
              "X": 0.0,
              "Y": 0.0
            },
            "PreSize": {
              "X": 0.0,
              "Y": 0.0
            },
            "LeftMargin": -120.0,
            "RightMargin": -130.0,
            "TopMargin": -219.54,
            "BottomMargin": 28.54,
            "Tag": 152,
            "ActionTag": -2124573912,
            "Size": {
              "X": 250.0,
              "Y": 191.0
            },
            "Alpha": 0,
            "Name": "Decor_4_1",
            "ctype": "SpriteObjectData"
          }
        ],
        "Size": {
          "X": 0.0,
          "Y": 0.0
        },
        "Name": "Node",
        "ctype": "SingleNodeObjectData"
      },
      "UsedResources": [
        "textures/Decor_4.png"
      ],
      "ctype": "GameFileData"
    }
  },
  "Type": "Node"
}